               epoch,      train/box_loss,      train/obj_loss,      train/cls_loss,   metrics/precision,      metrics/recall,     metrics/mAP_0.5,metrics/mAP_0.5:0.95,        val/box_loss,        val/obj_loss,        val/cls_loss,               x/lr0,               x/lr1,               x/lr2
                   0,             0.12766,             0.10544,            0.045283,           0.0081058,            0.012894,           0.0024432,          0.00071529,             0.12626,             0.23129,            0.043909,               8e-05,               8e-05,             0.09928
                   1,             0.12446,            0.093435,             0.04137,           0.0085365,            0.011461,           0.0019309,          0.00041646,             0.12453,             0.24005,            0.040507,          0.00016996,          0.00016996,             0.09847
                   2,             0.12224,            0.093626,            0.036397,            0.009949,            0.017192,           0.0021894,          0.00053818,              0.1217,             0.25689,            0.035605,          0.00025977,          0.00025977,             0.09766
                   3,             0.11908,            0.087921,            0.031496,            0.012589,            0.019341,           0.0033405,           0.0006355,             0.11581,             0.27289,            0.028804,           0.0003493,           0.0003493,            0.096849
                   4,             0.11537,            0.085487,            0.026538,            0.017889,            0.030086,           0.0057227,            0.001012,             0.11111,             0.27295,            0.023763,          0.00043844,          0.00043844,            0.096038
                   5,             0.11149,            0.085388,            0.022638,            0.017986,            0.053725,           0.0081323,           0.0013873,             0.11025,               0.259,            0.020458,          0.00052706,          0.00052706,            0.095227
                   6,             0.10781,            0.080592,            0.020089,             0.28716,            0.057307,            0.016615,           0.0033472,             0.10384,             0.25218,            0.017177,          0.00061506,          0.00061506,            0.094415
                   7,              0.1044,            0.079697,            0.016966,             0.31584,            0.053725,            0.028863,           0.0079262,            0.099301,             0.23659,            0.015092,          0.00070231,          0.00070231,            0.093602
                   8,             0.10008,            0.068173,            0.015354,             0.30499,             0.05659,             0.03064,           0.0062131,             0.10629,             0.21586,            0.013382,          0.00078869,          0.00078869,            0.092789
                   9,            0.096786,            0.070021,            0.013532,             0.88744,            0.047231,            0.049067,            0.012391,             0.09708,             0.22143,            0.012332,           0.0008741,           0.0008741,            0.091974
                  10,            0.095456,            0.066731,            0.012303,             0.84177,             0.07235,            0.061668,               0.014,            0.088183,             0.22022,            0.011609,          0.00095842,          0.00095842,            0.091158
                  11,            0.088558,            0.067816,            0.012149,             0.85456,            0.083095,            0.063428,            0.019232,            0.083005,             0.22097,            0.010916,           0.0010415,           0.0010415,            0.090342
                  12,            0.088713,            0.066442,            0.010386,             0.87537,            0.088109,             0.08258,            0.025358,            0.089524,             0.21394,            0.011058,           0.0011233,           0.0011233,            0.089523
                  13,            0.086685,              0.0651,            0.010567,             0.84222,            0.076648,             0.06342,            0.018044,            0.078103,             0.20925,            0.010909,           0.0012037,           0.0012037,            0.088704
                  14,            0.083713,            0.062419,            0.010419,             0.87166,            0.092407,            0.089765,            0.025924,             0.07423,             0.21381,            0.010638,           0.0012826,           0.0012826,            0.087883
                  15,             0.08115,            0.062048,            0.010183,             0.86051,            0.093642,            0.085326,            0.021466,            0.074144,             0.20751,            0.010543,           0.0013599,           0.0013599,             0.08706
                  16,             0.08106,            0.058789,            0.010667,             0.88438,             0.10029,             0.10536,            0.030046,            0.073512,             0.21034,            0.010658,           0.0014354,           0.0014354,            0.086235
                  17,            0.076474,            0.063557,            0.010806,             0.86661,             0.12034,               0.114,            0.036506,            0.067875,             0.21161,            0.010316,           0.0015091,           0.0015091,            0.085409
                  18,            0.082251,            0.062514,            0.011053,             0.85426,            0.097367,            0.096722,            0.018847,             0.10608,             0.19469,            0.010512,           0.0015809,           0.0015809,            0.084581
                  19,             0.10406,            0.057865,            0.010327,             0.86309,            0.089342,            0.093536,            0.017991,             0.10923,             0.18672,            0.010517,           0.0016507,           0.0016507,            0.083751
                  20,             0.10343,             0.05772,            0.010633,             0.89787,            0.099559,             0.13322,             0.04411,            0.085681,             0.21409,             0.01041,           0.0017184,           0.0017184,            0.082918
                  21,            0.088241,            0.063774,           0.0099607,             0.86754,             0.11891,             0.11875,            0.042469,            0.074572,             0.21462,            0.010222,            0.001784,            0.001784,            0.082084
                  22,            0.083841,            0.059475,            0.010284,             0.85579,             0.10745,             0.10285,            0.032041,            0.069165,             0.21354,           0.0098896,           0.0018473,           0.0018473,            0.081247
                  23,            0.082532,            0.057097,            0.010213,             0.86169,             0.10315,             0.10224,             0.02451,            0.089278,             0.20503,           0.0098619,           0.0019082,           0.0019082,            0.080408
                  24,            0.084716,            0.060438,            0.010468,             0.86056,              0.1139,             0.13173,            0.029327,             0.06838,             0.21172,           0.0096136,           0.0019668,           0.0019668,            0.079567
                  25,            0.078816,            0.058169,           0.0097854,             0.58229,             0.23449,            0.093614,            0.022319,            0.083093,               0.211,           0.0094758,           0.0020229,           0.0020229,            0.078723
                  26,            0.079567,            0.059296,           0.0091685,              0.8632,             0.12453,             0.15265,            0.046896,            0.066893,             0.20693,           0.0094238,           0.0020765,           0.0020765,            0.077876
                  27,            0.080836,            0.057475,           0.0092922,             0.64474,             0.23267,             0.13469,            0.027995,            0.091549,             0.20554,            0.009371,           0.0021275,           0.0021275,            0.077027
                  28,            0.079574,            0.059185,           0.0096728,             0.65046,             0.25985,             0.15613,            0.041923,            0.065691,             0.21311,           0.0094054,           0.0021758,           0.0021758,            0.076176
                  29,            0.074111,            0.060349,           0.0091214,             0.65641,             0.22765,             0.11006,            0.027972,            0.088083,             0.19739,           0.0090268,           0.0022214,           0.0022214,            0.075321
                  30,            0.076245,            0.056649,           0.0089307,             0.65777,              0.2603,             0.18988,            0.064269,            0.062499,              0.2091,           0.0088728,           0.0022643,           0.0022643,            0.074464
                  31,            0.074742,            0.054056,            0.008431,             0.65408,             0.25053,             0.15226,            0.043347,            0.067373,             0.21027,           0.0089731,           0.0023044,           0.0023044,            0.073604
                  32,            0.071494,            0.056787,           0.0089477,             0.69918,              0.2596,             0.19278,            0.055381,            0.056696,             0.20118,           0.0086942,           0.0023417,           0.0023417,            0.072742
                  33,            0.068857,            0.057473,           0.0085644,             0.67188,             0.25622,             0.17724,            0.047252,            0.065917,             0.19952,            0.008475,           0.0023762,           0.0023762,            0.071876
                  34,            0.068485,             0.05831,            0.009006,             0.78419,             0.21117,              0.2281,            0.072179,            0.059672,             0.20275,           0.0085838,           0.0024077,           0.0024077,            0.071008
                  35,            0.068491,            0.058266,           0.0083553,             0.66986,              0.2548,             0.19244,            0.052259,             0.06555,             0.20257,            0.008428,           0.0024364,           0.0024364,            0.070136
                  36,            0.067653,            0.060114,           0.0076716,              0.7199,             0.27839,              0.2254,            0.077869,            0.057559,             0.20166,           0.0084612,           0.0024621,           0.0024621,            0.069262
                  37,            0.068408,            0.058073,           0.0075559,             0.69801,             0.27165,             0.20326,            0.053481,            0.066908,             0.19087,            0.008236,           0.0024849,           0.0024849,            0.068385
                  38,            0.067418,            0.056486,           0.0073789,             0.73747,              0.2076,             0.22005,            0.070193,            0.059091,             0.18971,           0.0080517,           0.0025048,           0.0025048,            0.067505
                  39,            0.066477,            0.057106,            0.008126,             0.75562,             0.25182,             0.20773,             0.05996,            0.059014,              0.1919,           0.0080216,           0.0025217,           0.0025217,            0.066622
                  40,            0.062496,            0.056397,            0.007704,              0.7288,             0.26251,             0.21615,            0.081152,            0.058897,             0.19229,            0.007935,           0.0025357,           0.0025357,            0.065736
                  41,            0.066867,            0.058649,           0.0077874,             0.69702,             0.26408,             0.21024,            0.065228,            0.056482,             0.19526,           0.0080291,           0.0025468,           0.0025468,            0.064847
                  42,            0.061293,            0.053066,           0.0071426,             0.78115,               0.284,             0.29281,             0.10158,            0.056485,             0.19062,             0.00784,            0.002555,            0.002555,            0.063955
                  43,            0.062964,            0.054051,           0.0072791,             0.72309,             0.25355,             0.23905,            0.088803,            0.069404,             0.19034,           0.0076985,           0.0025602,           0.0025602,             0.06306
                  44,            0.064511,            0.052114,           0.0069411,             0.80762,             0.28449,             0.31139,            0.089511,             0.05656,             0.19221,           0.0077401,           0.0025627,           0.0025627,            0.062163
                  45,            0.062653,            0.055348,           0.0076803,             0.77531,             0.26463,             0.28056,              0.1016,            0.054437,             0.19111,           0.0075796,           0.0025622,           0.0025622,            0.061262
                  46,            0.058152,            0.050131,           0.0071566,             0.71302,             0.31658,             0.24074,            0.064514,            0.051534,             0.19021,           0.0074385,            0.002559,            0.002559,            0.060359
                  47,            0.060744,            0.054791,           0.0070367,             0.75895,              0.2748,             0.28421,            0.093763,            0.056842,             0.18432,            0.007455,            0.002553,            0.002553,            0.059453
                  48,            0.059348,            0.055671,             0.00696,             0.75102,             0.30396,             0.28719,             0.11031,            0.051093,             0.18564,           0.0073425,           0.0025443,           0.0025443,            0.058544
                  49,            0.058978,            0.054142,           0.0070738,             0.79882,              0.2902,             0.28219,             0.10695,            0.046382,             0.18464,           0.0073062,            0.002533,            0.002533,            0.057633
                  50,            0.053847,            0.052548,           0.0068356,             0.88888,             0.29552,             0.34637,              0.1505,            0.047661,             0.18204,           0.0072334,            0.002519,            0.002519,            0.056719
                  51,            0.059003,            0.054947,           0.0068001,             0.79339,             0.28765,             0.28193,            0.096881,            0.048903,             0.18261,           0.0072381,           0.0025025,           0.0025025,            0.055802
                  52,            0.056335,            0.054252,           0.0069704,             0.81862,             0.30554,             0.33044,             0.13506,            0.050052,             0.18225,           0.0071422,           0.0024835,           0.0024835,            0.054884
                  53,            0.057926,             0.04989,           0.0075665,             0.83705,             0.31338,             0.34539,             0.14661,            0.050712,             0.17968,            0.007046,           0.0024621,           0.0024621,            0.053962
                  54,            0.055613,            0.054564,           0.0067761,             0.80906,             0.30696,              0.3351,             0.13309,            0.049548,             0.17943,           0.0069927,           0.0024384,           0.0024384,            0.053038
                  55,             0.05717,            0.053799,             0.00626,             0.72448,             0.25612,             0.22235,            0.066013,            0.070477,             0.18972,           0.0070475,           0.0024124,           0.0024124,            0.052112
                  56,            0.067803,            0.058703,            0.006264,             0.78747,             0.23043,             0.27534,             0.10098,            0.054781,             0.18142,           0.0070597,           0.0023843,           0.0023843,            0.051184
                  57,            0.061182,            0.051416,           0.0068402,             0.80377,             0.28765,             0.32407,             0.11328,            0.060291,              0.1834,           0.0070186,           0.0023541,           0.0023541,            0.050254
                  58,            0.061199,            0.052139,           0.0072738,             0.81972,              0.2911,              0.3052,            0.097339,            0.051353,             0.17887,           0.0069799,           0.0023219,           0.0023219,            0.049322
                  59,            0.059527,            0.052175,           0.0065996,             0.83666,             0.32879,             0.36625,              0.1242,            0.053321,             0.18146,           0.0069217,           0.0022878,           0.0022878,            0.048388
                  60,             0.06222,            0.050832,           0.0059193,             0.92812,             0.29782,             0.38323,             0.17207,            0.044794,             0.18418,           0.0069669,            0.002252,            0.002252,            0.047452
                  61,            0.053437,            0.052682,           0.0063104,             0.78151,             0.33264,             0.34816,             0.14976,             0.04959,             0.17995,           0.0068085,           0.0022145,           0.0022145,            0.046514
                  62,            0.057693,            0.050501,           0.0060287,             0.77405,             0.34413,             0.30724,             0.10096,            0.057468,             0.18696,           0.0067706,           0.0021754,           0.0021754,            0.045575
                  63,            0.057986,            0.051972,            0.006379,             0.79267,             0.34949,             0.33159,             0.12465,            0.055206,             0.18331,            0.006678,           0.0021349,           0.0021349,            0.044635
                  64,            0.059586,            0.048433,           0.0064027,             0.85446,               0.342,             0.35777,             0.14064,            0.051507,             0.18241,           0.0067013,           0.0020931,           0.0020931,            0.043693
                  65,            0.055738,            0.050895,           0.0058949,             0.85236,             0.33055,             0.36843,             0.14128,            0.047171,             0.17834,           0.0066892,             0.00205,             0.00205,             0.04275
                  66,            0.055517,            0.049993,           0.0060345,             0.91001,             0.31809,             0.40299,             0.18162,            0.041778,             0.17959,           0.0066428,           0.0020059,           0.0020059,            0.041806
                  67,            0.054867,            0.048444,           0.0060132,             0.88543,             0.34321,              0.4037,             0.17915,            0.042088,             0.17623,            0.006538,           0.0019609,           0.0019609,            0.040861
                  68,            0.050881,            0.049431,           0.0060906,             0.81365,             0.33154,             0.37395,             0.16787,            0.048869,             0.17818,           0.0064669,            0.001915,            0.001915,            0.039915
                  69,             0.05177,            0.050175,           0.0060084,             0.92782,             0.33756,             0.43436,             0.19681,            0.042569,             0.17255,           0.0063501,           0.0018685,           0.0018685,            0.038969
                  70,            0.052175,             0.04809,           0.0058349,             0.89062,             0.31196,             0.40565,             0.16649,             0.04566,             0.17621,           0.0063208,           0.0018215,           0.0018215,            0.038021
                  71,            0.051987,            0.051986,           0.0055292,             0.93195,             0.34769,             0.43891,             0.19827,            0.041305,             0.17443,           0.0062453,            0.001774,            0.001774,            0.037074
                  72,            0.053529,            0.049844,           0.0055358,             0.91146,             0.33911,             0.42152,              0.1854,            0.048618,              0.1768,           0.0062625,           0.0017263,           0.0017263,            0.036126
                  73,            0.051644,            0.051315,           0.0055874,             0.88278,             0.34837,             0.43992,             0.17318,            0.040651,             0.17375,           0.0062077,           0.0016785,           0.0016785,            0.035179
                  74,            0.051417,             0.04639,           0.0056313,             0.88023,             0.32525,             0.41674,             0.18809,            0.040522,             0.17392,           0.0060775,           0.0016308,           0.0016308,            0.034231
                  75,            0.046645,            0.048507,           0.0052621,             0.89253,             0.34465,             0.45255,              0.1926,             0.04357,             0.17053,           0.0059677,           0.0015832,           0.0015832,            0.033283
                  76,            0.049196,            0.045075,           0.0050287,             0.91495,             0.34672,             0.47906,             0.20487,            0.041675,             0.17132,           0.0058732,            0.001536,            0.001536,            0.032336
                  77,            0.047445,            0.048136,           0.0052636,             0.93237,             0.32635,             0.48787,             0.21494,            0.040371,             0.16891,            0.005797,           0.0014893,           0.0014893,            0.031389
                  78,            0.046802,            0.048809,           0.0055487,             0.94352,             0.32252,             0.46771,             0.21707,            0.040815,             0.16958,           0.0056848,           0.0014432,           0.0014432,            0.030443
                  79,            0.045608,            0.047689,           0.0051874,             0.72471,             0.46332,             0.50258,             0.22259,            0.039997,             0.16679,           0.0056265,            0.001398,            0.001398,            0.029498
                  80,            0.045949,            0.048659,           0.0054129,             0.62934,             0.50419,             0.50116,             0.23724,            0.038727,             0.16754,           0.0055749,           0.0013537,           0.0013537,            0.028554
                  81,            0.044257,            0.049186,           0.0054337,             0.65116,             0.50728,             0.51158,             0.23502,            0.038634,             0.16635,           0.0054839,           0.0013105,           0.0013105,             0.02761
                  82,            0.044081,            0.046152,           0.0046432,             0.69046,             0.50586,             0.51324,              0.2427,            0.037774,             0.16628,           0.0054154,           0.0012686,           0.0012686,            0.026669
                  83,             0.04375,            0.047315,           0.0048288,             0.69704,             0.50007,             0.52511,             0.25035,            0.037323,             0.16582,           0.0053796,           0.0012281,           0.0012281,            0.025728
                  84,            0.043721,            0.049403,           0.0050811,             0.68074,               0.498,             0.52587,             0.25389,            0.036638,              0.1654,            0.005256,           0.0011893,           0.0011893,            0.024789
                  85,            0.042859,            0.046682,            0.004844,             0.67414,             0.50539,             0.52827,             0.24853,            0.036161,             0.16443,           0.0051644,           0.0011521,           0.0011521,            0.023852
                  86,            0.040423,            0.047687,            0.004477,             0.69612,              0.5389,             0.55582,             0.25677,            0.037727,             0.16516,           0.0050413,           0.0011169,           0.0011169,            0.022917
                  87,            0.042613,            0.046828,           0.0047791,             0.68168,             0.52943,             0.55221,             0.26111,            0.035165,              0.1622,           0.0049708,           0.0010838,           0.0010838,            0.021984
                  88,            0.041235,            0.049608,           0.0048172,             0.70317,             0.52637,             0.54997,             0.26503,            0.035173,              0.1624,           0.0048755,           0.0010528,           0.0010528,            0.021053
                  89,            0.040454,            0.044536,           0.0046664,             0.73454,             0.52315,             0.57141,             0.27218,            0.034603,             0.16094,           0.0047708,           0.0010242,           0.0010242,            0.020124
                  90,            0.040462,            0.046419,           0.0045711,             0.72713,             0.53062,             0.57953,             0.27465,            0.035354,             0.16322,           0.0047164,          0.00099816,          0.00099816,            0.019198
                  91,            0.038228,            0.042638,           0.0045603,             0.74529,             0.53912,             0.57883,             0.28287,            0.033849,             0.16056,           0.0046194,          0.00097477,          0.00097477,            0.018275
                  92,            0.039079,            0.045606,           0.0040853,             0.73176,             0.53867,             0.57912,             0.27659,            0.034472,             0.16125,           0.0045541,          0.00095419,          0.00095419,            0.017354
                  93,             0.04155,            0.046029,           0.0040946,             0.73142,             0.55156,             0.58343,              0.2675,            0.036451,              0.1623,           0.0044936,          0.00093658,          0.00093658,            0.016437
                  94,             0.04417,            0.048074,           0.0047294,             0.77674,             0.52227,             0.57583,             0.26868,            0.036002,             0.16271,           0.0044904,          0.00092207,          0.00092207,            0.015522
                  95,            0.038871,            0.044469,           0.0041681,             0.75906,             0.55347,             0.59787,             0.29334,            0.036767,             0.16232,           0.0044281,          0.00091081,          0.00091081,            0.014611
                  96,            0.038048,            0.042659,           0.0043031,             0.75269,             0.55219,             0.58369,             0.28564,            0.036651,             0.16102,           0.0043775,          0.00090294,          0.00090294,            0.013703
                  97,            0.039343,            0.043766,           0.0040112,             0.73603,             0.54443,             0.58423,              0.2589,             0.03647,             0.16215,              0.0043,          0.00089859,          0.00089859,            0.012799
                  98,             0.04089,            0.046774,           0.0038933,             0.73016,             0.56643,             0.58351,             0.26215,            0.036205,             0.16199,           0.0042587,           0.0008979,           0.0008979,            0.011898
                  99,            0.040489,            0.045365,           0.0039899,             0.74997,             0.55167,             0.59152,             0.27702,            0.037832,             0.16198,           0.0042199,            0.000901,            0.000901,            0.011001
