               epoch,      train/box_loss,      train/obj_loss,      train/cls_loss,   metrics/precision,      metrics/recall,     metrics/mAP_0.5,metrics/mAP_0.5:0.95,        val/box_loss,        val/obj_loss,        val/cls_loss,               x/lr0,               x/lr1,               x/lr2
                   0,             0.13695,             0.03233,             0.02874,           0.0011346,            0.024266,          0.00066316,           0.0001682,             0.14399,            0.086765,             0.03483,             0.00034,             0.00034,             0.09694
                   1,             0.11877,            0.039772,            0.019164,             0.61423,            0.095029,            0.042218,            0.011448,             0.12617,             0.12535,            0.022849,          0.00068985,          0.00068985,             0.09379
                   2,              0.1124,            0.042383,              0.0163,             0.24332,              0.1837,            0.062742,            0.017368,             0.11511,             0.16755,            0.017428,           0.0010391,           0.0010391,            0.090639
                   3,             0.10748,            0.043947,            0.013463,             0.47573,             0.21893,            0.075061,            0.020481,             0.11043,             0.15176,            0.016029,           0.0013872,           0.0013872,            0.087487
                   4,              0.1063,            0.043748,            0.012354,             0.51931,              0.1719,             0.11411,            0.033603,              0.1137,             0.13535,            0.013802,           0.0017338,           0.0017338,            0.084334
                   5,             0.10501,            0.043451,            0.010915,             0.21688,             0.24546,             0.14096,            0.036218,             0.10686,              0.1937,            0.020318,           0.0020784,           0.0020784,            0.081178
                   6,             0.10337,            0.044454,            0.010289,             0.33397,             0.22787,             0.17426,            0.043575,             0.10587,              0.2025,             0.01884,           0.0024206,           0.0024206,            0.078021
                   7,             0.10122,             0.04528,            0.009794,             0.50113,             0.19785,             0.13958,            0.038264,              0.1019,             0.15358,            0.011874,           0.0027598,           0.0027598,             0.07486
                   8,             0.10024,             0.04597,            0.009396,                0.15,             0.29333,             0.12912,            0.035073,             0.10154,             0.14321,            0.015675,           0.0030956,           0.0030956,            0.071696
                   9,            0.099744,            0.045341,           0.0091347,             0.26193,             0.29213,             0.17306,            0.047843,             0.10372,             0.15913,             0.01485,           0.0034276,           0.0034276,            0.068528
                  10,             0.10047,            0.045049,           0.0091752,              0.6009,             0.18917,             0.17458,            0.060165,             0.10445,             0.14648,             0.01578,           0.0037554,           0.0037554,            0.065355
                  11,            0.098812,            0.045559,           0.0086797,             0.31531,             0.38206,             0.27274,            0.087005,            0.097739,             0.16315,             0.01171,           0.0040785,           0.0040785,            0.062179
                  12,            0.098361,            0.045118,           0.0085151,             0.30869,              0.3649,             0.26228,            0.087099,             0.10034,             0.14717,            0.012547,           0.0043965,           0.0043965,            0.058997
                  13,            0.097032,            0.044456,            0.008376,              0.4324,             0.37081,             0.31095,             0.10547,            0.096238,             0.13932,           0.0087991,            0.004709,            0.004709,            0.055809
                  14,            0.096224,            0.044187,           0.0082796,             0.35279,             0.42515,             0.29986,            0.093155,            0.097523,             0.14566,            0.011448,           0.0050156,           0.0050156,            0.052616
                  15,            0.096074,            0.045099,            0.008291,             0.26935,             0.33843,             0.22321,            0.081455,             0.10005,             0.16189,            0.016767,           0.0053158,           0.0053158,            0.049416
                  16,            0.096522,             0.04521,            0.008505,             0.57889,             0.28074,             0.31075,             0.10376,            0.096272,             0.15324,            0.012877,           0.0056094,           0.0056094,            0.046209
                  17,            0.095336,            0.044915,           0.0080348,              0.3108,             0.27891,             0.23627,             0.07242,             0.10168,             0.18615,            0.015897,           0.0058958,           0.0058958,            0.042996
                  18,            0.094962,            0.045025,           0.0077828,             0.37831,             0.36157,             0.27953,            0.086539,             0.09651,             0.14401,             0.01225,           0.0061749,           0.0061749,            0.039775
                  19,            0.096426,            0.046328,           0.0075867,             0.47976,             0.33756,              0.3112,            0.091738,            0.096633,             0.14204,            0.012699,           0.0064461,           0.0064461,            0.036546
                  20,            0.095281,            0.044865,           0.0075163,             0.45849,             0.34278,             0.27395,            0.095543,            0.097967,             0.16499,             0.01497,           0.0067092,           0.0067092,            0.033309
                  21,            0.093494,            0.044194,           0.0075401,             0.41468,             0.42958,             0.39423,             0.13682,            0.092592,             0.14226,           0.0092592,           0.0069638,           0.0069638,            0.030064
                  22,             0.09413,            0.045281,            0.007477,             0.33791,             0.30701,             0.27084,              0.1023,            0.096135,              0.1432,            0.017801,           0.0072097,           0.0072097,             0.02681
                  23,            0.094628,            0.044789,           0.0075117,             0.46785,             0.36207,              0.3474,             0.13522,            0.096187,             0.16772,            0.012489,           0.0074465,           0.0074465,            0.023547
                  24,            0.094216,            0.044574,           0.0073509,             0.35205,              0.4476,             0.34454,             0.11611,            0.092112,             0.13715,           0.0080627,            0.007674,            0.007674,            0.020274
                  25,             0.09317,            0.044687,           0.0071954,             0.41662,             0.26132,             0.21574,            0.068932,             0.11395,             0.13364,             0.03357,           0.0078919,           0.0078919,            0.016992
                  26,            0.093094,            0.044141,            0.006754,             0.39373,             0.44092,             0.37785,             0.14256,            0.092413,             0.13755,           0.0093536,              0.0081,              0.0081,              0.0137
                  27,            0.095682,            0.044628,           0.0071195,             0.49702,             0.39681,             0.38964,             0.14156,            0.092043,             0.13374,           0.0096723,           0.0082979,           0.0082979,            0.010398
                  28,            0.095238,            0.042594,            0.007354,              0.4162,             0.46322,             0.39265,             0.12357,            0.093065,             0.14305,           0.0091749,           0.0083684,           0.0083684,           0.0083684
                  29,             0.09369,            0.043657,            0.006797,              0.4351,             0.42665,             0.37956,             0.13691,            0.090092,             0.14057,            0.009167,           0.0083684,           0.0083684,           0.0083684
                  30,            0.091466,            0.043828,           0.0067365,              0.5364,             0.44929,             0.42663,              0.1605,            0.089439,             0.13733,           0.0085038,           0.0082581,           0.0082581,           0.0082581
                  31,            0.091372,            0.044979,            0.006816,             0.69066,             0.35127,             0.42211,             0.16543,            0.089511,             0.13891,           0.0095258,            0.008145,            0.008145,            0.008145
                  32,            0.091331,            0.043014,           0.0063172,             0.54937,             0.37252,               0.396,             0.14624,            0.092781,             0.14503,           0.0079607,           0.0080294,           0.0080294,           0.0080294
                  33,            0.091347,            0.044239,           0.0067191,             0.63489,             0.39184,             0.42272,             0.16174,            0.089931,             0.13176,           0.0098616,           0.0079112,           0.0079112,           0.0079112
                  34,            0.090295,            0.043521,           0.0066442,             0.55647,             0.30248,             0.29851,              0.1117,             0.09698,             0.13895,            0.026971,           0.0077907,           0.0077907,           0.0077907
                  35,             0.09059,            0.044157,           0.0068712,             0.18209,            0.089006,            0.013028,           0.0035302,             0.15084,             0.15421,            0.095339,           0.0076679,           0.0076679,           0.0076679
                  36,            0.090372,            0.044165,           0.0062021,             0.42608,             0.40418,             0.34817,             0.12197,            0.093473,             0.13262,             0.01368,            0.007543,            0.007543,            0.007543
                  37,            0.088149,            0.043507,           0.0062367,             0.65264,             0.42979,             0.44941,             0.18817,            0.085853,             0.12764,           0.0076276,            0.007416,            0.007416,            0.007416
                  38,            0.089286,            0.043549,           0.0066721,             0.67292,             0.42248,             0.47525,             0.17982,            0.087088,             0.12893,           0.0087217,           0.0072872,           0.0072872,           0.0072872
                  39,            0.090527,            0.044191,           0.0065677,             0.56222,             0.41169,             0.43756,             0.17364,            0.088677,             0.13055,           0.0093514,           0.0071566,           0.0071566,           0.0071566
                  40,            0.088962,            0.042594,           0.0059358,             0.72151,             0.45522,             0.49713,             0.19115,            0.086256,             0.13122,           0.0085332,           0.0070243,           0.0070243,           0.0070243
                  41,            0.087821,            0.043359,           0.0058876,             0.53995,             0.45113,             0.46552,              0.1949,             0.08695,             0.13701,           0.0091713,           0.0068906,           0.0068906,           0.0068906
                  42,            0.086679,            0.041905,           0.0058904,             0.68153,             0.46302,              0.5016,             0.19594,            0.084193,                0.13,            0.007431,           0.0067555,           0.0067555,           0.0067555
                  43,            0.087777,            0.043994,           0.0058352,             0.68716,             0.45106,             0.50828,             0.21811,            0.083832,             0.12711,           0.0070668,           0.0066191,           0.0066191,           0.0066191
                  44,             0.08632,            0.042227,           0.0057423,              0.6312,              0.5024,             0.50729,             0.20562,            0.083684,             0.12777,           0.0067278,           0.0064816,           0.0064816,           0.0064816
                  45,            0.085056,             0.04281,           0.0053343,             0.79501,             0.45359,             0.53463,             0.22176,            0.084961,             0.12952,            0.008435,           0.0063432,           0.0063432,           0.0063432
                  46,            0.086137,            0.042425,           0.0054022,             0.67004,              0.4865,             0.53125,             0.23175,             0.08394,             0.12971,           0.0083299,            0.006204,            0.006204,            0.006204
                  47,            0.086869,            0.042882,           0.0052899,             0.75936,             0.47929,             0.56494,             0.23149,            0.085121,              0.1255,            0.006611,            0.006064,            0.006064,            0.006064
                  48,            0.085453,            0.042755,           0.0052159,             0.71143,             0.48491,             0.54634,             0.24198,            0.083736,             0.12767,           0.0076959,           0.0059235,           0.0059235,           0.0059235
                  49,            0.085351,             0.04238,           0.0052869,             0.74428,             0.51483,              0.5659,             0.24226,            0.082684,             0.12564,           0.0071609,           0.0057826,           0.0057826,           0.0057826
                  50,            0.084999,            0.041608,           0.0050544,             0.70237,             0.50064,             0.54059,              0.2235,            0.083722,             0.12883,           0.0076701,           0.0056413,           0.0056413,           0.0056413
                  51,            0.085587,             0.04247,            0.005325,              0.6568,             0.49421,             0.53913,             0.24028,            0.083358,             0.12541,           0.0077042,              0.0055,              0.0055,              0.0055
                  52,            0.085057,            0.042865,           0.0053315,             0.62699,             0.53535,             0.56978,             0.25558,            0.082974,               0.125,           0.0075563,           0.0053587,           0.0053587,           0.0053587
                  53,            0.084045,            0.044303,           0.0052167,             0.68171,              0.4358,             0.50313,             0.20213,            0.084979,             0.13278,           0.0092516,           0.0052174,           0.0052174,           0.0052174
                  54,            0.084494,            0.041524,           0.0051691,             0.60386,             0.48071,             0.50957,             0.22503,             0.08306,             0.12803,           0.0078949,           0.0050765,           0.0050765,           0.0050765
                  55,            0.084781,             0.04174,           0.0052693,             0.72679,             0.48608,             0.56329,             0.25835,            0.082303,             0.12534,           0.0076573,            0.004936,            0.004936,            0.004936
                  56,            0.085283,             0.04273,           0.0048248,             0.83038,             0.47732,             0.58582,             0.24308,            0.082649,             0.12423,           0.0079361,            0.004796,            0.004796,            0.004796
                  57,            0.084085,            0.043246,            0.005192,             0.67638,             0.52802,             0.56268,             0.22562,            0.082216,               0.125,           0.0068401,           0.0046568,           0.0046568,           0.0046568
                  58,            0.083362,            0.042151,           0.0047033,             0.73904,             0.51086,             0.58154,             0.25932,            0.081779,             0.12438,           0.0062421,           0.0045184,           0.0045184,           0.0045184
                  59,             0.08311,            0.042912,           0.0048464,             0.64103,             0.46377,             0.48954,             0.19576,            0.085404,             0.13711,           0.0093848,           0.0043809,           0.0043809,           0.0043809
                  60,            0.082669,            0.042634,           0.0049132,             0.66925,             0.56707,             0.58978,             0.28616,            0.080773,               0.122,            0.006722,           0.0042445,           0.0042445,           0.0042445
                  61,            0.081876,            0.041778,           0.0048035,             0.74652,             0.50555,             0.57005,             0.25585,            0.081846,             0.12315,           0.0075911,           0.0041094,           0.0041094,           0.0041094
                  62,            0.081699,            0.041334,           0.0048767,             0.75582,             0.48157,             0.58282,             0.27563,            0.081394,             0.12362,           0.0072052,           0.0039757,           0.0039757,           0.0039757
                  63,             0.08246,            0.042423,           0.0049561,             0.77609,             0.52321,             0.59563,             0.26924,            0.080612,             0.12353,           0.0073927,           0.0038434,           0.0038434,           0.0038434
                  64,            0.082779,            0.040992,            0.004655,             0.72523,             0.53265,             0.59523,             0.27235,             0.08118,             0.12353,           0.0066316,           0.0037128,           0.0037128,           0.0037128
                  65,              0.0824,            0.040766,            0.005052,             0.82348,              0.5153,             0.60761,             0.29818,            0.080018,             0.12173,           0.0066011,            0.003584,            0.003584,            0.003584
                  66,            0.082181,            0.042438,           0.0047365,             0.75895,             0.54686,             0.60765,              0.2791,            0.080281,             0.12292,           0.0063835,            0.003457,            0.003457,            0.003457
                  67,            0.082708,            0.042002,           0.0046198,             0.64761,             0.58702,             0.60269,             0.27821,            0.081245,             0.12507,           0.0065365,           0.0033321,           0.0033321,           0.0033321
                  68,            0.081217,            0.040094,           0.0048732,             0.79964,             0.50224,             0.59976,             0.28624,            0.080807,             0.12411,           0.0068346,           0.0032093,           0.0032093,           0.0032093
                  69,            0.081126,            0.040009,            0.004797,             0.67174,             0.58728,             0.62243,             0.30204,            0.078891,             0.12028,           0.0060996,           0.0030888,           0.0030888,           0.0030888
                  70,            0.081039,            0.041133,           0.0046711,              0.6761,              0.5482,                 0.6,              0.2545,            0.080947,             0.12337,           0.0067549,           0.0029706,           0.0029706,           0.0029706
                  71,             0.08119,            0.040555,           0.0048562,              0.6812,             0.56024,             0.61437,             0.30276,             0.07958,             0.12374,           0.0062456,            0.002855,            0.002855,            0.002855
                  72,            0.080238,            0.041692,           0.0047495,             0.73093,             0.58875,             0.63991,             0.30717,            0.079155,             0.12075,           0.0063565,           0.0027419,           0.0027419,           0.0027419
                  73,            0.079254,            0.042359,           0.0043874,             0.70921,             0.52936,             0.59486,             0.29043,            0.078967,             0.11963,           0.0066847,           0.0026316,           0.0026316,           0.0026316
                  74,            0.079609,            0.040139,           0.0043796,             0.69579,             0.54715,             0.61076,             0.28364,             0.07971,             0.12406,           0.0066359,           0.0025241,           0.0025241,           0.0025241
                  75,              0.0799,            0.041448,           0.0044422,             0.77118,              0.5819,             0.64762,             0.30875,            0.078325,             0.12192,           0.0066646,           0.0024195,           0.0024195,           0.0024195
                  76,            0.079364,            0.039106,           0.0045982,             0.72898,              0.5936,             0.64687,             0.32308,            0.078182,             0.11925,           0.0060753,            0.002318,            0.002318,            0.002318
                  77,            0.079288,            0.040141,           0.0044467,             0.80974,             0.54483,             0.62781,             0.32553,            0.078495,             0.11994,           0.0074172,           0.0022196,           0.0022196,           0.0022196
                  78,            0.079026,            0.041063,           0.0043855,             0.82446,              0.5506,             0.64827,             0.32599,            0.078181,             0.12088,           0.0068539,           0.0021245,           0.0021245,           0.0021245
                  79,            0.079174,            0.040025,           0.0043703,             0.72532,             0.59189,             0.63695,             0.31743,            0.078586,             0.12117,            0.006197,           0.0020327,           0.0020327,           0.0020327
                  80,            0.078119,            0.040762,           0.0044609,             0.79328,             0.59258,             0.65536,             0.33203,             0.07712,             0.11841,           0.0056661,           0.0019443,           0.0019443,           0.0019443
                  81,            0.077836,            0.039675,           0.0043178,             0.79377,             0.57121,             0.65324,             0.31284,             0.07755,             0.12061,            0.006659,           0.0018594,           0.0018594,           0.0018594
                  82,            0.077499,            0.040483,           0.0043379,             0.70431,             0.60193,             0.64904,             0.32672,            0.077326,             0.11882,           0.0061928,           0.0017781,           0.0017781,           0.0017781
                  83,            0.078311,             0.03982,           0.0043644,             0.78781,             0.59389,             0.66794,             0.34187,            0.077718,             0.11904,           0.0061394,           0.0017005,           0.0017005,           0.0017005
                  84,            0.077362,            0.040103,           0.0042347,             0.69382,             0.62503,             0.65584,             0.33515,            0.077055,             0.11885,           0.0058825,           0.0016267,           0.0016267,           0.0016267
                  85,            0.077463,            0.039362,           0.0042423,             0.73399,             0.61724,             0.67278,             0.33138,            0.076962,             0.11909,           0.0058237,           0.0015566,           0.0015566,           0.0015566
                  86,            0.077142,            0.039392,           0.0044722,             0.82904,             0.55352,             0.65604,             0.33898,            0.076591,             0.11836,           0.0058458,           0.0014905,           0.0014905,           0.0014905
                  87,            0.077246,            0.040258,           0.0044051,             0.74453,             0.60693,             0.67218,             0.33877,            0.076556,             0.11729,           0.0060137,           0.0014283,           0.0014283,           0.0014283
                  88,            0.076629,            0.039152,           0.0042779,             0.77207,              0.6016,             0.66553,             0.34604,            0.076291,              0.1174,           0.0058263,           0.0013701,           0.0013701,           0.0013701
                  89,            0.076467,            0.040441,           0.0041543,             0.73422,             0.61126,             0.65565,             0.33086,            0.077094,             0.11894,           0.0062934,            0.001316,            0.001316,            0.001316
                  90,            0.077299,            0.038288,            0.004263,             0.82075,             0.58718,              0.6593,             0.34912,            0.076548,             0.11738,           0.0055822,            0.001266,            0.001266,            0.001266
                  91,            0.077224,            0.039667,           0.0040515,             0.76502,             0.61118,             0.66376,             0.33761,            0.076916,             0.11892,           0.0057723,           0.0012202,           0.0012202,           0.0012202
                  92,            0.076561,            0.039091,           0.0042333,             0.79845,             0.60633,             0.67657,             0.33828,             0.07622,             0.11818,           0.0061327,           0.0011787,           0.0011787,           0.0011787
                  93,            0.076486,            0.038929,           0.0040527,             0.82549,             0.57921,             0.66216,             0.34444,            0.076033,             0.11832,           0.0059607,           0.0011414,           0.0011414,           0.0011414
                  94,            0.076469,            0.038482,           0.0041047,             0.69969,             0.63875,             0.66964,             0.34807,             0.07615,             0.11799,           0.0062588,           0.0011084,           0.0011084,           0.0011084
                  95,            0.075722,              0.0394,           0.0039868,             0.80198,             0.60016,             0.68541,             0.35515,            0.075158,             0.11676,            0.005847,           0.0010797,           0.0010797,           0.0010797
                  96,            0.075595,             0.03894,           0.0040993,             0.74816,              0.6331,             0.67392,              0.3596,            0.075655,             0.11724,           0.0060317,           0.0010554,           0.0010554,           0.0010554
                  97,            0.074732,            0.039537,           0.0038484,             0.77209,             0.61556,             0.67235,             0.35166,            0.075981,             0.11636,           0.0062794,           0.0010355,           0.0010355,           0.0010355
                  98,            0.075969,            0.038015,           0.0042594,             0.73211,             0.66143,             0.68956,             0.36123,            0.075637,             0.11684,           0.0062203,             0.00102,             0.00102,             0.00102
                  99,            0.075447,            0.040289,           0.0040368,             0.67366,             0.66198,             0.66985,             0.34889,            0.075824,             0.11666,           0.0064028,           0.0010089,           0.0010089,           0.0010089
