0 0.078730 0.587383 0.012285 0.073516
7 0.170059 0.727422 0.005977 0.267031
4 0.168262 0.785156 0.006836 0.148438
6 0.437002 0.666523 0.004238 0.144297
6 0.471875 0.613828 0.003457 0.093906
6 0.464341 0.629531 0.003662 0.098750
6 0.462295 0.641367 0.003867 0.115078
6 0.545234 0.619648 0.004395 0.144453
6 0.540723 0.624805 0.003926 0.144141
6 0.534741 0.612852 0.003877 0.124141
0 0.943779 0.815586 0.054570 0.368828
4 0.871558 0.644219 0.012119 0.148906
0 0.018838 0.806719 0.037676 0.386563
0 0.004580 0.574141 0.008848 0.103594
6 0.107529 0.681562 0.005684 0.224375
0 0.021309 0.603711 0.015234 0.122891
0 0.509087 0.844570 0.042275 0.310859
0 0.520986 0.624570 0.010117 0.082578
0 0.505317 0.662109 0.016514 0.126719
4 0.919600 0.602266 0.011465 0.118437
4 0.913369 0.605938 0.010547 0.110781
4 0.898745 0.615352 0.012822 0.136172
