7 0.430620 0.654492 0.005537 0.176953
4 0.431152 0.703906 0.007031 0.095313
6 0.468945 0.621797 0.003867 0.108594
4 0.775010 0.704102 0.009609 0.215234
0 0.015298 0.792461 0.030518 0.415078
0 0.055527 0.597695 0.019258 0.125234
6 0.263965 0.803594 0.012500 0.392813
0 0.043521 0.746992 0.032764 0.304141
0 0.508672 0.808984 0.030176 0.329375
0 0.522373 0.613086 0.010117 0.082578
0 0.508745 0.618242 0.012275 0.091172
6 0.964668 0.553789 0.004141 0.131172
4 0.875688 0.639336 0.014424 0.167891
4 0.860830 0.665234 0.019316 0.171094
4 0.823774 0.692109 0.011963 0.170156
