0 0.045264 0.803164 0.043105 0.393672
0 0.110635 0.675703 0.023242 0.157031
0 0.148159 0.604648 0.020576 0.140078
6 0.381826 0.649375 0.003379 0.140312
0 0.393071 0.841055 0.049150 0.317891
0 0.455361 0.792969 0.024121 0.284844
0 0.457793 0.641563 0.009824 0.079375
0 0.444390 0.613906 0.009443 0.067500
2 0.985825 0.533398 0.011865 0.172578
0 0.966470 0.582852 0.011904 0.117422
6 0.855459 0.589766 0.007148 0.147500
6 0.849063 0.589766 0.006816 0.161562
6 0.837974 0.634258 0.007295 0.268828
4 0.581260 0.685859 0.015137 0.171250
4 0.568071 0.703008 0.017393 0.148672
4 0.551973 0.690117 0.013594 0.124141
