7 0.469092 0.608672 0.003223 0.080625
4 0.469199 0.635039 0.003477 0.050859
4 0.624053 0.673359 0.017559 0.129687
0 0.040386 0.789102 0.041455 0.421797
0 0.108315 0.705313 0.025342 0.166250
0 0.151357 0.632734 0.022441 0.140469
6 0.408467 0.696289 0.005254 0.209453
0 0.292188 0.921484 0.109180 0.157031
0 0.500156 0.769180 0.025234 0.291328
0 0.515742 0.620117 0.010117 0.082578
0 0.502305 0.596250 0.009453 0.067500
6 0.945771 0.570508 0.004961 0.093047
6 0.939321 0.583477 0.005361 0.205234
4 0.719927 0.730703 0.012393 0.221562
4 0.690869 0.721211 0.017266 0.184922
4 0.658232 0.703516 0.013730 0.174531
