7 0.460879 0.605547 0.004102 0.103437
4 0.461162 0.644688 0.004551 0.065312
4 0.699937 0.704297 0.011006 0.200156
0 0.018462 0.790859 0.035791 0.418281
0 0.058188 0.649062 0.023662 0.151094
0 0.099629 0.619687 0.019687 0.140469
6 0.357803 0.750820 0.006699 0.305859
0 0.082456 0.839961 0.059424 0.316797
0 0.510913 0.777227 0.026436 0.296484
0 0.524170 0.613711 0.010117 0.082578
0 0.509521 0.606797 0.010605 0.077187
6 0.960342 0.570352 0.004687 0.159297
4 0.822510 0.695352 0.015762 0.214453
4 0.800244 0.711328 0.011992 0.190000
4 0.755493 0.711328 0.013291 0.179531
