0 0.080698 0.597852 0.012666 0.072266
7 0.205615 0.763867 0.009316 0.340703
4 0.205625 0.849570 0.020430 0.218359
6 0.441567 0.655117 0.004209 0.141328
6 0.473369 0.609336 0.003457 0.093984
6 0.466616 0.620195 0.003662 0.098828
6 0.464414 0.630391 0.003867 0.115000
6 0.542485 0.615508 0.004385 0.144453
6 0.538521 0.615625 0.003545 0.137500
6 0.532817 0.607891 0.003877 0.124219
0 0.969419 0.748672 0.030479 0.300312
4 0.867920 0.652539 0.010723 0.149922
0 0.018101 0.803945 0.036201 0.392109
0 0.006074 0.569102 0.011465 0.097734
6 0.118101 0.702930 0.006377 0.259609
0 0.024878 0.624023 0.016162 0.134766
0 0.509009 0.840313 0.039971 0.319375
0 0.520986 0.621602 0.010117 0.082578
0 0.505151 0.653359 0.016514 0.126719
4 0.917402 0.610391 0.012031 0.127344
4 0.910811 0.611094 0.010547 0.110781
4 0.894355 0.624297 0.013516 0.141094
