0 0.079067 0.590586 0.012510 0.073203
7 0.178726 0.730977 0.006592 0.272422
4 0.176016 0.811094 0.010566 0.161719
6 0.438281 0.663555 0.004238 0.144297
6 0.472246 0.612695 0.003457 0.093984
6 0.465601 0.626680 0.003662 0.098828
6 0.462822 0.638633 0.003867 0.115078
6 0.544546 0.618633 0.004385 0.144453
6 0.540176 0.622500 0.003828 0.142500
6 0.534263 0.611602 0.003877 0.124141
0 0.952944 0.803281 0.046064 0.393437
4 0.870645 0.646289 0.011777 0.149141
0 0.018652 0.806016 0.037305 0.387969
0 0.004663 0.572852 0.008916 0.102109
6 0.110176 0.686914 0.005859 0.233203
0 0.021870 0.608789 0.016123 0.125859
0 0.509072 0.843516 0.041699 0.312969
0 0.520986 0.623867 0.010117 0.082578
0 0.505278 0.659922 0.016514 0.126719
4 0.919106 0.604453 0.011611 0.120625
4 0.912725 0.607266 0.010547 0.110781
4 0.897651 0.617617 0.012998 0.137422
