7 0.451826 0.619258 0.003984 0.122422
4 0.451753 0.652344 0.005068 0.065625
4 0.728750 0.704102 0.009609 0.215234
0 0.017246 0.791484 0.033750 0.417031
0 0.042964 0.643906 0.022412 0.151094
0 0.081562 0.612305 0.019687 0.140391
6 0.324692 0.777930 0.007783 0.358984
0 0.061650 0.818047 0.042129 0.363437
0 0.509648 0.784766 0.027871 0.299375
0 0.523477 0.613477 0.010117 0.082578
0 0.509619 0.610039 0.011250 0.082578
6 0.962607 0.563711 0.004707 0.144453
4 0.846577 0.673828 0.015244 0.196562
4 0.829414 0.690195 0.011992 0.182734
4 0.786909 0.709414 0.012412 0.178672
