0 0.044956 0.801719 0.043174 0.396563
0 0.109683 0.660391 0.023096 0.156406
0 0.146714 0.594688 0.020537 0.139375
6 0.378706 0.642695 0.003408 0.138516
0 0.393594 0.838320 0.046270 0.323359
0 0.452358 0.790820 0.024189 0.283203
0 0.453320 0.640000 0.009746 0.078125
0 0.439229 0.607109 0.009453 0.067500
2 0.979795 0.527617 0.013262 0.174922
0 0.959971 0.585664 0.012422 0.123047
6 0.846992 0.590703 0.006953 0.148750
6 0.839580 0.602695 0.007168 0.164141
6 0.827676 0.641719 0.007285 0.275156
4 0.574111 0.696562 0.015059 0.165625
4 0.561670 0.706641 0.016621 0.141094
4 0.545913 0.693281 0.013135 0.120312
