7 0.466997 0.596094 0.004111 0.092187
4 0.466865 0.625469 0.003848 0.058125
4 0.677690 0.704531 0.012881 0.180000
0 0.019434 0.790352 0.037402 0.419297
0 0.072109 0.660508 0.024414 0.153984
0 0.115557 0.623281 0.022441 0.140469
6 0.378794 0.723555 0.005967 0.285391
0 0.110771 0.850313 0.087754 0.297500
0 0.509819 0.772422 0.025283 0.294219
0 0.524727 0.613906 0.010117 0.082656
0 0.509438 0.604258 0.010088 0.072891
6 0.956943 0.575664 0.004668 0.171172
4 0.798813 0.716211 0.015967 0.221641
4 0.772139 0.725977 0.012910 0.195859
4 0.729365 0.717617 0.015039 0.180234
