0 0.081187 0.598242 0.012529 0.072109
7 0.210806 0.767422 0.009521 0.349531
4 0.211069 0.856016 0.021064 0.221406
6 0.442012 0.653789 0.004199 0.140391
6 0.473555 0.608789 0.003457 0.093984
6 0.466987 0.619023 0.003662 0.098828
6 0.464678 0.629062 0.003867 0.115000
6 0.542139 0.614961 0.004395 0.144453
6 0.538247 0.614492 0.003506 0.136641
6 0.532578 0.607266 0.003887 0.124219
0 0.971240 0.737891 0.028887 0.288281
4 0.867461 0.653633 0.010547 0.150078
0 0.018008 0.803633 0.036016 0.392734
0 0.006348 0.568516 0.011973 0.097031
6 0.119419 0.705586 0.006455 0.263984
0 0.025249 0.626562 0.016182 0.140781
0 0.508999 0.839766 0.039678 0.320469
0 0.520986 0.621211 0.010117 0.082578
0 0.505132 0.652266 0.016514 0.126719
4 0.916924 0.610977 0.012090 0.128516
4 0.910488 0.611719 0.010547 0.110781
4 0.893809 0.625469 0.013613 0.141719
