7 0.471421 0.601992 0.003486 0.081172
4 0.471147 0.628945 0.003428 0.051953
4 0.645166 0.691289 0.015684 0.149766
0 0.032139 0.789609 0.039824 0.420781
0 0.095615 0.688594 0.025137 0.162656
0 0.139209 0.628477 0.022168 0.140391
6 0.401035 0.704297 0.004727 0.232500
0 0.194043 0.905078 0.114258 0.189844
0 0.508340 0.768789 0.024395 0.291328
0 0.521758 0.621602 0.010117 0.082578
0 0.507930 0.600078 0.009453 0.067500
6 0.951841 0.583633 0.004658 0.188984
4 0.751865 0.717812 0.009531 0.221562
4 0.725205 0.739102 0.014277 0.204609
4 0.688198 0.717344 0.015537 0.181250
